139907;-25.64;-7.01;37.56;-25.64;-7.23;37.56;0.00;-1.76;37.43
139987;-25.63;-6.98;36.69;-25.63;-7.16;36.73;0.00;-2.45;35.72
140067;-25.63;-6.95;35.70;-25.63;-7.14;35.70;0.00;-2.45;35.72
140147;-25.63;-7.07;34.42;-25.63;-7.11;34.57;0.00;-6.08;30.82
140226;-25.63;-7.15;32.91;-25.63;-7.22;33.34;0.00;-5.62;22.76
140306;-25.62;-7.16;31.19;-25.62;-7.28;31.81;0.00;-4.35;16.26
140386;-25.58;-7.18;29.58;-25.58;-7.26;30.23;0.00;-5.32;13.95
140467;-25.52;-7.17;28.21;-25.52;-7.25;28.81;0.00;-5.32;13.95
140547;-25.47;-7.12;26.89;-25.47;-7.24;27.47;0.00;-4.27;12.98
140627;-25.41;-6.96;25.79;-25.41;-7.16;26.32;0.00;-2.28;13.07
140707;-25.36;-6.72;24.86;-25.36;-6.98;25.30;0.00;-0.59;14.36
140787;-25.32;-6.48;23.98;-25.32;-6.71;24.37;0.00;-0.98;14.62
140866;-25.28;-6.26;23.12;-25.28;-6.48;23.48;0.00;-0.97;14.47
140946;-25.26;-6.01;22.24;-25.26;-6.23;22.55;0.00;-0.56;14.82
141026;-25.27;-5.74;21.33;-25.27;-5.98;21.56;0.00;-0.04;15.74
141106;-25.31;-5.50;20.23;-25.31;-5.71;20.48;0.00;-0.61;14.46
141186;-25.35;-5.31;18.95;-25.35;-5.47;19.38;0.00;-1.47;8.74
141266;-25.39;-5.21;17.33;-25.39;-5.29;17.94;0.00;-3.26;2.80
141345;-25.41;-5.12;15.76;-25.41;-5.19;16.30;0.00;-3.26;2.80
141425;-25.40;-5.09;14.18;-25.40;-5.12;14.83;0.00;-4.51;-1.37
141504;-25.38;-5.05;12.58;-25.38;-5.09;13.27;0.00;-4.09;-4.06
141585;-25.36;-5.03;11.06;-25.36;-5.07;11.73;0.00;-4.17;-4.98
141665;-25.34;-4.95;9.64;-25.34;-5.05;10.26;0.00;-2.51;-5.17
141744;-25.35;-4.87;8.29;-25.35;-4.97;8.85;0.00;-2.51;-5.17
141824;-25.36;-4.82;6.94;-25.36;-4.89;7.51;0.00;-2.98;-6.75
141903;-25.40;-4.74;5.59;-25.40;-4.85;6.15;0.00;-2.28;-7.66
141983;-25.47;-4.61;4.33;-25.47;-4.79;4.82;0.00;-0.23;-7.47
142062;-25.54;-4.52;3.07;-25.54;-4.65;3.55;0.00;-1.41;-8.67
142141;-25.65;-4.45;1.86;-25.65;-4.58;2.30;0.00;-1.41;-8.67
142220;-25.75;-4.38;0.70;-25.75;-4.51;1.15;0.00;-1.17;-10.23
142299;-25.83;-4.38;-0.50;-25.83;-4.44;0.02;0.00;-2.98;-13.15
142379;-25.90;-4.42;-1.83;-25.90;-4.44;-1.19;0.00;-4.08;-17.25
142459;-25.92;-4.44;-3.15;-25.92;-4.49;-2.45;0.00;-3.20;-19.83
142539;-25.87;-4.45;-4.30;-25.87;-4.50;-3.65;0.00;-3.20;-19.83
142619;-25.81;-4.42;-5.30;-25.81;-4.53;-4.73;0.00;-2.00;-18.95
142699;-25.75;-4.38;-6.42;-25.75;-4.50;-5.74;0.00;-1.64;-22.76
142779;-25.71;-4.29;-7.56;-25.71;-4.46;-6.84;0.00;-0.25;-24.75
142859;-25.70;-4.11;-8.55;-25.70;-4.36;-7.95;0.00;1.86;-23.04
142938;-25.76;-3.92;-9.57;-25.76;-4.16;-9.01;0.00;1.86;-23.04
143018;-25.81;-3.66;-10.45;-25.81;-3.96;-10.03;0.00;3.59;-20.55
143099;-25.93;-3.39;-11.42;-25.93;-3.68;-11.06;0.00;3.60;-19.96
143179;-26.11;-3.11;-12.50;-26.11;-3.40;-12.12;0.00;3.77;-21.56
143259;-26.28;-2.93;-13.73;-26.28;-3.12;-13.21;0.00;1.65;-26.13
143338;-26.45;-2.75;-14.92;-26.45;-2.93;-14.45;0.00;1.65;-26.12
143419;-26.56;-2.81;-16.13;-26.56;-2.77;-15.56;0.00;-3.90;-29.70
143500;-26.57;-2.88;-17.23;-26.57;-2.86;-16.61;0.00;-3.45;-32.27
143580;-26.51;-2.89;-18.38;-26.51;-2.92;-17.70;0.00;-2.20;-34.51
143660;-26.46;-2.82;-19.35;-26.46;-2.94;-18.69;0.00;0.06;-35.25
143741;-26.38;-2.70;-20.21;-26.38;-2.87;-19.56;0.00;1.47;-35.85
143821;-26.31;-2.57;-21.01;-26.31;-2.74;-20.39;0.00;1.47;-35.85
143901;-26.24;-2.39;-21.72;-26.24;-2.61;-21.18;0.00;2.75;-34.69
143981;-26.20;-2.16;-22.41;-26.20;-2.40;-21.98;0.00;3.66;-32.91
144061;-26.21;-1.92;-23.19;-26.21;-2.13;-22.79;0.00;3.08;-32.84
144141;-26.26;-1.68;-24.08;-26.26;-1.87;-23.65;0.00;3.06;-34.22
144220;-26.32;-1.44;-24.93;-26.32;-1.63;-24.55;0.00;3.06;-34.22
144300;-26.39;-1.29;-25.88;-26.39;-1.40;-25.42;0.00;1.37;-37.00
144380;-26.42;-1.27;-26.84;-26.42;-1.26;-26.31;0.00;-1.41;-39.57
144461;-26.39;-1.25;-27.77;-26.39;-1.26;-27.20;0.00;-0.95;-41.59
144541;-26.36;-1.18;-28.72;-26.36;-1.24;-28.13;0.00;0.33;-42.76
144620;-26.25;-1.12;-29.58;-26.25;-1.18;-29.03;0.00;0.33;-42.76
144699;-26.07;-1.10;-30.29;-26.07;-1.10;-29.87;0.00;-1.19;-40.22
144780;-25.94;-1.20;-30.80;-25.94;-1.06;-30.59;0.00;-4.39;-35.80
144860;-25.81;-1.13;-31.65;-25.81;-1.16;-31.11;0.00;-0.34;-44.63
144940;-25.75;-0.98;-32.44;-25.75;-1.07;-31.93;0.00;1.02;-44.68
145019;-25.73;-0.83;-33.17;-25.73;-0.91;-32.69;0.00;1.02;-44.68
145098;-25.77;-0.62;-33.85;-25.77;-0.72;-33.49;0.00;1.74;-42.52
145178;-25.80;-0.44;-34.44;-25.80;-0.52;-34.18;0.00;1.24;-40.68
145258;-25.88;-0.32;-35.14;-25.88;-0.31;-34.89;0.00;-0.69;-41.26
145338;-25.97;-0.31;-35.93;-25.97;-0.18;-35.63;0.00;-3.43;-43.16
145418;-25.98;-0.31;-36.67;-25.98;-0.18;-36.41;0.00;-3.41;-42.82
145498;-26.02;-0.41;-37.35;-26.02;-0.20;-37.07;0.00;-5.50;-43.89
145578;-26.02;-0.46;-37.92;-26.02;-0.34;-37.64;0.00;-3.35;-44.54
145658;-25.99;-0.45;-38.43;-25.99;-0.41;-38.16;0.00;-1.49;-45.00
145738;-25.96;-0.44;-38.97;-25.96;-0.40;-38.68;0.00;-1.37;-45.96
145818;-25.92;-0.45;-39.61;-25.92;-0.41;-39.24;0.00;-1.38;-48.48
145898;-25.89;-0.46;-40.25;-25.89;-0.42;-39.91;0.00;-1.56;-48.48
145978;-25.86;-0.47;-40.96;-25.86;-0.43;-40.57;0.00;-1.50;-50.25
146058;-25.84;-0.43;-41.68;-25.84;-0.43;-41.28;0.00;-0.23;-51.25
146138;-25.84;-0.30;-42.44;-25.84;-0.37;-42.04;0.00;1.26;-52.00
146218;-25.84;-0.23;-43.31;-25.84;-0.23;-42.86;0.00;-0.24;-54.03
146298;-25.83;-0.17;-44.14;-25.83;-0.17;-43.73;0.00;-0.24;-54.03
146378;-25.82;-0.22;-45.01;-25.82;-0.10;-44.55;0.00;-3.13;-55.95
146458;-25.77;-0.32;-45.86;-25.77;-0.17;-45.37;0.00;-4.02;-57.53
146538;-25.68;-0.43;-46.65;-25.68;-0.28;-46.15;0.00;-4.02;-58.50
146618;-25.57;-0.52;-47.40;-25.57;-0.38;-46.91;0.00;-4.11;-59.08
146699;-25.46;-0.62;-48.12;-25.46;-0.47;-47.67;0.00;-4.11;-59.08
146779;-25.36;-0.67;-48.86;-25.36;-0.56;-48.41;0.00;-3.23;-59.65
146860;-25.29;-0.74;-49.61;-25.29;-0.60;-49.18;0.00;-4.04;-59.98
146940;-25.26;-0.79;-50.31;-25.26;-0.66;-49.91;0.00;-4.01;-59.91
147020;-25.23;-0.81;-50.97;-25.23;-0.71;-50.61;0.00;-3.24;-59.64
147100;-25.23;-0.83;-51.58;-25.23;-0.73;-51.26;0.00;-3.22;-59.18
147181;-25.24;-0.88;-52.15;-25.24;-0.75;-51.85;0.00;-3.81;-59.31
147261;-25.25;-0.98;-52.65;-25.25;-0.82;-52.36;0.00;-4.93;-59.51
147341;-25.26;-1.11;-53.14;-25.26;-0.92;-52.86;0.00;-5.77;-59.66
147422;-25.24;-1.29;-53.54;-25.24;-1.08;-53.26;0.00;-6.39;-60.30
147502;-25.19;-1.49;-53.88;-25.19;-1.29;-53.58;0.00;-6.25;-61.06
147583;-25.12;-1.74;-54.20;-25.12;-1.56;-53.91;0.00;-6.25;-61.06
147663;-25.05;-1.92;-54.46;-25.05;-1.75;-54.17;0.00;-5.95;-61.59
147744;-24.98;-2.07;-54.68;-24.98;-1.92;-54.38;0.00;-5.68;-61.91
147824;-24.91;-2.23;-54.82;-24.91;-2.07;-54.56;0.00;-5.92;-60.97
147905;-24.85;-2.41;-54.90;-24.85;-2.23;-54.70;0.00;-6.86;-59.67
147985;-24.79;-2.59;-54.96;-24.79;-2.41;-54.76;0.00;-6.86;-59.67
148066;-24.74;-2.75;-54.96;-24.74;-2.59;-54.80;0.00;-6.57;-58.86
148146;-24.69;-2.93;-54.91;-24.69;-2.75;-54.79;0.00;-7.17;-57.82
148227;-24.63;-3.15;-54.83;-24.63;-2.93;-54.73;0.00;-8.30;-57.27
148307;-24.58;-3.38;-54.72;-24.58;-3.16;-54.64;0.00;-8.74;-56.52
148388;-24.54;-3.63;-54.58;-24.54;-3.41;-54.48;0.00;-8.78;-56.86
148469;-24.49;-3.82;-54.40;-24.49;-3.67;-54.32;0.00;-7.41;-56.46
148549;-24.45;-3.99;-54.24;-24.45;-3.87;-54.15;0.00;-6.98;-56.53
148629;-24.43;-4.19;-54.11;-24.43;-4.04;-53.99;0.00;-7.85;-56.85
148710;-24.41;-4.38;-53.94;-24.41;-4.24;-53.84;0.00;-7.76;-56.44
148790;-24.40;-4.52;-53.73;-24.40;-4.42;-53.64;0.00;-6.94;-55.75
148871;-24.39;-4.66;-53.52;-24.39;-4.56;-53.42;0.00;-6.94;-55.75
148952;-24.39;-4.77;-53.26;-24.39;-4.69;-53.19;0.00;-6.68;-54.85
149032;-24.39;-4.89;-52.89;-24.39;-4.81;-52.89;0.00;-6.88;-53.04
149113;-24.39;-5.00;-52.36;-24.39;-4.93;-52.41;0.00;-6.58;-51.20
149193;-24.39;-5.10;-51.83;-24.39;-5.04;-51.89;0.00;-6.62;-50.18
149273;-24.38;-5.21;-51.23;-24.38;-5.15;-51.28;0.00;-6.62;-50.18
149354;-24.35;-5.28;-50.64;-24.35;-5.26;-50.69;0.00;-5.63;-49.53
149434;-24.33;-5.25;-50.24;-24.33;-5.31;-50.26;0.00;-3.84;-49.81
149514;-24.31;-5.26;-49.88;-24.31;-5.28;-49.86;0.00;-4.70;-50.51
149594;-24.31;-5.27;-49.69;-24.31;-5.26;-49.64;0.00;-5.62;-50.72
149675;-24.35;-5.26;-49.45;-24.35;-5.25;-49.46;0.00;-5.50;-49.27
149754;-24.38;-5.25;-49.16;-24.38;-5.24;-49.15;0.00;-5.61;-49.51
149835;-24.42;-5.26;-48.84;-24.42;-5.23;-48.86;0.00;-6.11;-48.46
149914;-24.45;-5.30;-48.32;-24.45;-5.24;-48.41;0.00;-6.68;-46.14
149994;-24.46;-5.34;-47.59;-24.46;-5.26;-47.77;0.00;-7.07;-43.23
150075;-24.44;-5.44;-46.71;-24.44;-5.30;-46.94;0.00;-8.87;-41.00
150155;-24.43;-5.49;-45.87;-24.43;-5.40;-46.06;0.00;-7.53;-41.17
150236;-24.40;-5.52;-44.86;-24.40;-5.45;-45.14;0.00;-7.34;-38.06
150317;-24.36;-5.59;-43.68;-24.36;-5.49;-44.04;0.00;-8.18;-34.99
150397;-24.30;-5.62;-42.29;-24.30;-5.58;-42.70;0.00;-6.42;-32.38
150477;-24.25;-5.62;-40.81;-24.25;-5.60;-41.33;0.00;-6.03;-28.24
150558;-24.17;-5.65;-39.25;-24.17;-5.63;-39.71;0.00;-6.03;-28.24
150638;-24.06;-5.66;-37.54;-24.06;-5.66;-38.15;0.00;-5.46;-22.80
150719;-23.93;-5.47;-35.64;-23.93;-5.60;-36.42;0.00;-2.30;-17.01
150799;-23.80;-5.36;-34.00;-23.80;-5.46;-34.74;0.00;-2.81;-16.37
150879;-23.65;-5.33;-32.89;-23.65;-5.31;-33.42;0.00;-5.83;-20.08
150959;-23.50;-5.27;-32.04;-23.50;-5.26;-32.59;0.00;-5.48;-18.81
151039;-23.36;-5.31;-31.49;-23.36;-5.19;-31.74;0.00;-8.21;-25.34
151120;-23.22;-5.35;-31.17;-23.22;-5.23;-31.31;0.00;-8.25;-27.79
151200;-23.12;-5.41;-30.80;-23.12;-5.29;-30.95;0.00;-8.24;-27.04
151280;-23.08;-5.50;-30.30;-23.08;-5.39;-30.55;0.00;-8.24;-24.31
151361;-23.03;-5.59;-29.74;-23.03;-5.48;-30.05;0.00;-8.40;-22.44
151441;-23.03;-5.75;-29.24;-23.03;-5.60;-29.53;0.00;-9.28;-22.39
151521;-23.07;-5.93;-28.74;-23.07;-5.78;-29.06;0.00;-9.63;-20.94
151602;-23.13;-6.07;-28.19;-23.13;-5.98;-28.56;0.00;-8.13;-19.40
151683;-23.19;-6.20;-27.62;-23.19;-6.12;-28.01;0.00;-8.17;-18.17
151763;-23.25;-6.33;-27.05;-23.25;-6.26;-27.44;0.00;-8.02;-17.62
151843;-23.32;-6.45;-26.50;-23.32;-6.39;-26.87;0.00;-8.02;-17.62
151924;-23.36;-6.55;-25.92;-23.36;-6.52;-26.27;0.00;-7.22;-17.42
152005;-23.40;-6.65;-25.32;-23.40;-6.61;-25.69;0.00;-7.63;-16.24
152086;-23.42;-6.76;-24.70;-23.42;-6.71;-25.07;0.00;-8.03;-15.86
152167;-23.42;-6.81;-24.12;-23.42;-6.82;-24.44;0.00;-6.60;-16.40
152247;-23.39;-6.86;-23.52;-23.39;-6.87;-23.82;0.00;-6.60;-16.40
152327;-23.36;-6.88;-22.94;-23.36;-6.91;-23.23;0.00;-6.11;-16.13
152407;-23.32;-6.88;-22.33;-23.32;-6.94;-22.60;0.00;-5.56;-15.82
152488;-23.27;-6.85;-21.67;-23.27;-6.94;-21.94;0.00;-4.73;-15.29
152569;-23.22;-6.80;-20.98;-23.22;-6.90;-21.23;0.00;-4.41;-14.88
152649;-23.17;-6.81;-20.33;-23.17;-6.86;-20.55;0.00;-5.63;-14.99
152730;-23.13;-6.82;-19.66;-23.13;-6.87;-19.85;0.00;-5.63;-14.99
152810;-23.09;-6.85;-18.99;-23.09;-6.87;-19.15;0.00;-6.20;-15.17
152891;-23.07;-6.86;-18.28;-23.07;-6.90;-18.44;0.00;-6.04;-14.33
152971;-23.04;-6.88;-17.52;-23.04;-6.91;-17.73;0.00;-6.12;-12.41
153052;-23.02;-6.89;-16.67;-23.02;-6.93;-16.96;0.00;-6.14;-9.85
153133;-23.04;-6.90;-15.83;-23.04;-6.93;-16.08;0.00;-6.14;-9.85
153214;-23.08;-6.89;-14.88;-23.08;-6.94;-15.19;0.00;-5.56;-7.40
153294;-23.12;-6.83;-13.93;-23.12;-6.93;-14.26;0.00;-4.51;-5.90
153374;-23.16;-6.76;-12.84;-23.16;-6.88;-13.21;0.00;-3.90;-4.01
153454;-23.20;-6.72;-11.62;-23.20;-6.82;-12.05;0.00;-4.21;-1.28
153534;-23.21;-6.68;-10.34;-23.21;-6.78;-10.72;0.00;-4.20;-1.28
153614;-23.22;-6.66;-8.97;-23.22;-6.75;-9.45;0.00;-4.43;2.41
153694;-23.23;-6.70;-7.50;-23.23;-6.72;-8.05;0.00;-6.32;5.69
153774;-23.23;-6.72;-6.03;-23.23;-6.75;-6.59;0.00;-5.95;7.32
153854;-23.23;-6.72;-4.51;-23.23;-6.77;-5.10;0.00;-5.50;9.52
153933;-23.22;-6.57;-2.90;-23.22;-6.77;-3.56;0.00;-1.87;12.80
154012;-23.22;-6.49;-1.36;-23.22;-6.62;-1.94;0.00;-3.34;12.79
154092;-23.21;-6.35;0.29;-23.21;-6.54;-0.37;0.00;-1.59;16.02
154171;-23.19;-6.19;1.95;-23.19;-6.40;1.27;0.00;-0.93;18.29
154251;-23.18;-6.01;3.52;-23.18;-6.25;2.92;0.00;-0.07;17.92
154330;-23.17;-5.77;5.10;-23.17;-6.08;4.46;0.00;1.65;20.55
154408;-23.14;-5.52;6.53;-23.14;-5.82;5.94;0.00;1.65;20.55
154487;-23.11;-5.45;8.01;-23.11;-5.57;7.37;0.00;-2.67;23.39
154567;-23.08;-5.38;9.42;-23.08;-5.47;8.79;0.00;-3.14;24.61
154646;-23.07;-5.31;10.75;-23.07;-5.38;10.16;0.00;-3.64;24.83
154725;-23.14;-5.39;11.61;-23.14;-5.29;11.50;0.00;-7.86;14.28
154805;-23.21;-5.47;12.43;-23.21;-5.38;12.35;0.00;-7.67;14.29
154885;-23.26;-5.17;13.76;-23.26;-5.44;13.23;0.00;1.22;26.44
154965;-23.30;-5.04;15.25;-23.30;-5.14;14.55;0.00;-2.71;31.90
155045;-23.35;-4.82;16.76;-23.35;-5.00;15.96;0.00;-0.51;35.78
155125;-23.39;-4.66;18.41;-23.39;-4.78;17.48;0.00;-1.76;40.89
155205;-23.42;-4.50;19.87;-23.42;-4.62;18.99;0.00;-1.76;40.89
155284;-23.45;-4.37;21.09;-23.45;-4.45;20.30;0.00;-2.46;40.17
155364;-23.48;-4.14;22.16;-23.48;-4.31;21.52;0.00;-0.09;37.51
155444;-23.48;-3.99;23.09;-23.48;-4.08;22.51;0.00;-1.92;36.90
155524;-23.45;-3.95;23.96;-23.45;-3.95;23.44;0.00;-4.15;36.31
155603;-23.40;-3.93;24.79;-23.40;-3.93;24.31;0.00;-4.15;36.31
155683;-23.36;-3.92;25.56;-23.36;-3.91;25.14;0.00;-4.35;35.54
155763;-23.30;-3.90;26.31;-23.30;-3.91;25.93;0.00;-3.64;35.46
155843;-23.24;-3.94;27.10;-23.24;-3.89;26.69;0.00;-5.18;36.89
155922;-23.19;-3.97;27.89;-23.19;-3.94;27.49;0.00;-4.80;37.66
156003;-23.14;-4.01;28.65;-23.14;-3.98;28.28;0.00;-4.80;37.66
156083;-23.09;-3.96;29.45;-23.09;-4.02;29.04;0.00;-2.68;39.20
156163;-23.05;-3.90;30.32;-23.05;-3.98;29.84;0.00;-2.06;41.77
156242;-23.02;-3.81;31.17;-23.02;-3.92;30.69;0.00;-1.23;42.72
156322;-22.98;-3.70;31.99;-22.98;-3.83;31.53;0.00;-0.61;42.94
156402;-22.95;-3.60;32.77;-22.95;-3.72;32.35;0.00;-0.61;42.94
156482;-22.92;-3.47;33.55;-22.92;-3.62;33.15;0.00;0.15;43.27
156562;-22.88;-3.35;34.38;-22.88;-3.48;33.94;0.00;-0.33;44.90
156642;-22.84;-3.30;35.29;-22.84;-3.37;34.76;0.00;-1.61;47.95
156721;-22.81;-3.21;36.24;-22.81;-3.29;35.66;0.00;-1.39;50.12
156801;-22.79;-3.13;37.16;-22.79;-3.20;36.58;0.00;-1.41;51.14
156881;-22.76;-2.96;38.08;-22.76;-3.11;37.50;0.00;0.70;51.97
156961;-22.74;-2.70;39.00;-22.74;-2.93;38.39;0.00;2.86;53.50
157041;-22.70;-2.39;39.84;-22.70;-2.67;39.27;0.00;4.36;53.46
157120;-22.63;-2.07;40.59;-22.63;-2.36;40.11;0.00;4.92;52.10
157199;-22.55;-1.90;41.30;-22.55;-2.03;40.87;0.00;1.22;51.79
157278;-22.44;-1.73;42.06;-22.44;-1.85;41.65;0.00;1.07;51.79
157358;-22.27;-1.68;43.00;-22.27;-1.65;42.52;0.00;-2.60;54.41
157438;-22.10;-1.59;43.99;-22.10;-1.58;43.50;0.00;-1.73;55.55
157518;-21.92;-1.50;44.93;-21.92;-1.48;44.49;0.00;-1.93;55.54
157597;-21.75;-1.34;45.81;-21.75;-1.39;45.43;0.00;-0.19;54.97
157677;-21.58;-1.20;46.62;-21.58;-1.24;46.27;0.00;-0.19;54.97
157756;-21.42;-1.05;47.34;-21.42;-1.14;47.06;0.00;1.08;54.06
157836;-21.26;-0.87;48.06;-21.26;-0.99;47.78;0.00;1.86;54.79
157915;-21.10;-0.75;48.80;-21.10;-0.83;48.51;0.00;1.29;55.56
157995;-20.95;-0.66;49.54;-20.95;-0.72;49.23;0.00;0.66;57.14
158074;-20.82;-0.59;50.21;-20.82;-0.65;49.92;0.00;0.66;57.14
158153;-20.70;-0.56;50.89;-20.70;-0.57;50.58;0.00;-0.22;58.30
158232;-20.61;-0.52;51.49;-20.61;-0.55;51.18;0.00;0.16;58.78
158312;-20.57;-0.49;51.98;-20.57;-0.53;51.70;0.00;0.49;58.87
158390;-20.53;-0.48;52.48;-20.53;-0.49;52.19;0.00;-0.14;59.48
158470;-20.52;-0.48;52.91;-20.52;-0.49;52.64;0.00;-0.14;59.48
158550;-20.55;-0.45;53.34;-20.55;-0.50;53.05;0.00;0.95;60.40
158630;-20.59;-0.40;53.83;-20.59;-0.49;53.51;0.00;1.63;61.48
158709;-20.64;-0.35;54.40;-20.64;-0.44;54.00;0.00;2.04;64.04
158789;-20.69;-0.29;55.02;-20.69;-0.40;54.58;0.00;2.16;65.43
158868;-20.76;-0.24;55.58;-20.76;-0.34;55.17;0.00;2.16;65.43
158948;-20.83;-0.19;56.09;-20.83;-0.28;55.70;0.00;2.10;65.31
159027;-20.91;-0.12;56.63;-20.91;-0.23;56.21;0.00;2.61;66.63
159106;-20.99;-0.06;57.18;-20.99;-0.16;56.73;0.00;2.21;68.01
159186;-21.09;-0.05;57.70;-21.09;-0.10;57.26;0.00;1.14;68.30
159265;-21.19;-0.02;58.18;-21.19;-0.07;57.76;0.00;1.14;68.30
159344;-21.29;0.06;58.63;-21.29;-0.04;58.23;0.00;2.53;68.21
159423;-21.39;0.09;59.07;-21.39;0.05;58.67;0.00;1.17;68.80
159502;-21.49;0.13;59.47;-21.49;0.09;59.09;0.00;1.01;68.60
159581;-21.58;0.18;59.87;-21.58;0.12;59.49;0.00;1.69;68.94
159660;-21.68;0.25;60.26;-21.68;0.19;59.90;0.00;1.69;68.94
159739;-21.76;0.32;60.63;-21.76;0.27;60.28;0.00;1.50;69.22
159818;-21.84;0.40;60.94;-21.84;0.36;60.61;0.00;1.44;68.94
159897;-21.92;0.48;61.18;-21.92;0.44;60.92;0.00;1.35;67.46
159975;-21.99;0.54;61.29;-21.99;0.53;61.11;0.00;0.75;65.56
160055;-22.05;0.60;61.37;-22.05;0.59;61.19;0.00;0.75;65.56
160133;-22.11;0.60;61.38;-22.11;0.65;61.26;0.00;-0.57;64.40
160213;-22.17;0.60;61.36;-22.17;0.65;61.27;0.00;-0.64;63.58
160292;-22.23;0.62;61.34;-22.23;0.64;61.23;0.00;0.12;63.86
160370;-22.29;0.63;61.26;-22.29;0.64;61.17;0.00;0.29;63.54
160449;-22.36;0.63;61.20;-22.36;0.64;61.10;0.00;0.29;63.54
160528;-22.43;0.63;61.03;-22.43;0.64;60.95;0.00;0.20;62.87
160607;-22.50;0.63;60.76;-22.50;0.64;60.69;0.00;0.51;62.55
160686;-22.59;0.65;60.36;-22.59;0.64;60.31;0.00;0.72;61.66
160765;-22.68;0.60;59.90;-22.68;0.66;59.92;0.00;-0.82;59.34
160844;-22.78;0.55;59.32;-22.78;0.61;59.32;0.00;-0.82;59.34
160924;-22.89;0.49;58.60;-22.89;0.55;58.67;0.00;-0.79;56.81
161003;-23.01;0.42;57.87;-23.01;0.47;57.97;0.00;-0.63;55.49
161082;-23.13;0.35;57.18;-23.13;0.40;57.23;0.00;-0.77;55.94
161161;-23.26;0.28;56.53;-23.26;0.31;56.53;0.00;-0.53;56.39
161239;-23.40;0.21;55.84;-23.40;0.24;55.82;0.00;-0.53;56.39
161319;-23.55;0.11;55.07;-23.55;0.19;54.98;0.00;-1.84;57.26
161397;-23.71;0.01;54.29;-23.71;0.09;54.21;0.00;-1.81;56.07
161477;-23.88;-0.06;53.24;-23.88;0.01;53.24;0.00;-1.66;53.01
161556;-24.05;-0.10;51.89;-24.05;-0.05;52.02;0.00;-1.22;48.77
161635;-24.23;-0.13;50.61;-24.23;-0.09;50.68;0.00;-1.22;48.77
161714;-24.40;-0.15;49.05;-24.40;-0.13;49.31;0.00;-0.77;42.90
161795;-24.55;-0.15;47.44;-24.55;-0.16;47.81;0.00;0.07;38.56
161874;-24.67;-0.20;46.00;-24.67;-0.19;46.33;0.00;-0.33;38.09
161953;-24.79;-0.24;44.62;-24.79;-0.23;44.90;0.00;-0.37;37.75
162033;-24.88;-0.29;43.40;-24.88;-0.29;43.64;0.00;-0.37;37.75
162112;-24.95;-0.32;42.28;-24.95;-0.33;42.49;0.00;-0.10;37.39
162191;-25.01;-0.33;41.14;-25.01;-0.33;41.32;0.00;-0.13;36.73
162270;-25.07;-0.40;39.99;-25.07;-0.34;40.20;0.00;-1.89;35.03
162350;-25.12;-0.45;38.62;-25.12;-0.40;38.94;0.00;-1.86;30.91
162430;-25.17;-0.48;37.22;-25.17;-0.42;37.48;0.00;-1.86;30.91
162509;-25.20;-0.51;35.69;-25.20;-0.43;36.07;0.00;-2.64;26.61
162588;-25.24;-0.55;34.05;-25.24;-0.46;34.54;0.00;-2.63;22.16
162668;-25.26;-0.55;32.29;-25.26;-0.50;32.89;0.00;-1.67;17.91
162748;-25.25;-0.55;30.57;-25.25;-0.51;31.18;0.00;-1.72;15.74
162827;-25.23;-0.56;28.93;-25.23;-0.51;29.48;0.00;-1.72;15.74
162907;-25.21;-0.56;27.27;-25.21;-0.54;27.86;0.00;-1.11;12.98
162987;-25.19;-0.67;25.61;-25.19;-0.56;26.21;0.00;-3.24;11.23
163066;-25.18;-0.75;23.90;-25.18;-0.69;24.55;0.00;-2.11;8.36
163146;-25.18;-0.81;22.14;-25.18;-0.77;22.84;0.00;-1.81;5.53
163225;-25.20;-0.88;20.42;-25.20;-0.84;21.04;0.00;-1.81;5.53
163304;-25.25;-0.92;18.57;-25.25;-0.91;19.29;0.00;-1.21;1.35
163383;-25.31;-0.98;16.65;-25.31;-0.95;17.46;0.00;-1.78;-2.86
163462;-25.36;-1.05;14.72;-25.36;-1.01;15.54;0.00;-2.12;-5.00
163542;-25.42;-1.07;12.88;-25.42;-1.07;13.69;0.00;-1.07;-6.60
163621;-25.48;-1.08;11.20;-25.48;-1.08;11.94;0.00;-1.07;-6.60
163700;-25.53;-1.10;9.57;-25.53;-1.07;10.31;0.00;-1.66;-8.33
163779;-25.57;-1.11;7.98;-25.57;-1.09;8.68;0.00;-1.54;-8.83
163858;-25.61;-1.07;6.41;-25.61;-1.09;7.11;0.00;-0.61;-10.24
163937;-25.66;-1.03;4.93;-25.66;-1.05;5.57;0.00;-0.53;-10.57
164016;-25.72;-0.99;3.50;-25.72;-1.01;4.09;0.00;-0.53;-10.57
164096;-25.77;-0.92;2.07;-25.77;-0.96;2.66;0.00;0.10;-12.07
164174;-25.83;-0.87;0.65;-25.83;-0.91;1.27;0.00;0.09;-14.28
164253;-25.88;-0.84;-0.74;-25.88;-0.86;-0.11;0.00;-0.35;-16.08
164333;-25.93;-0.81;-2.11;-25.93;-0.84;-1.50;0.00;-0.01;-16.72
164412;-25.95;-0.79;-3.36;-25.95;-0.82;-2.80;0.00;-0.01;-16.72
164492;-25.96;-0.82;-4.68;-25.96;-0.80;-4.08;0.00;-1.16;-19.17
164571;-25.94;-0.88;-6.16;-25.94;-0.82;-5.40;0.00;-2.43;-24.37
164651;-25.92;-0.91;-7.78;-25.92;-0.89;-6.90;0.00;-1.56;-28.82
164731;-25.89;-0.90;-9.32;-25.89;-0.91;-8.45;0.00;-0.67;-30.09
164810;-25.86;-0.88;-10.79;-25.86;-0.89;-9.98;0.00;-0.67;-30.09
164891;-25.86;-0.85;-12.28;-25.86;-0.84;-11.47;0.00;-0.92;-31.60
164971;-25.86;-0.81;-13.72;-25.86;-0.81;-12.94;0.00;-0.88;-32.26
165051;-25.88;-0.77;-15.17;-25.88;-0.77;-14.44;0.00;-0.89;-32.72
165131;-25.95;-0.74;-16.62;-25.95;-0.72;-15.91;0.00;-1.30;-33.52
165210;-26.03;-0.74;-18.00;-26.03;-0.71;-17.32;0.00;-1.34;-34.52
165290;-26.12;-0.76;-19.35;-26.12;-0.71;-18.72;0.00;-2.01;-34.35
165370;-26.21;-0.84;-20.63;-26.21;-0.75;-20.01;0.00;-2.95;-35.46
165450;-26.29;-0.94;-21.85;-26.29;-0.86;-21.22;0.00;-2.83;-36.94
165530;-26.34;-1.01;-23.02;-26.34;-0.96;-22.43;0.00;-2.15;-37.16
165610;-26.38;-1.09;-24.07;-26.38;-1.05;-23.50;0.00;-2.21;-37.80
165690;-26.41;-1.15;-25.02;-26.41;-1.15;-24.49;0.00;-1.02;-37.83
165769;-26.40;-1.15;-25.97;-26.40;-1.22;-25.44;0.00;0.51;-38.58

