#!/usr/bin/gnuplot


set terminal pngcairo
set output "Graph.png"

set datafile separator ';'
plot 'TestData.csv' using 1:2 pointtype 1,'TestData.csv' using 1:3 pointtype 1,'TestData.csv' using 1:4 pointtype 1,'TestData.csv' using 1:5 with points pointtype 1,'TestData.csv' using 1:6 with points pointtype 1



pause -1
