4022;-0.56;0.03
4027;-0.69;0.04
4031;-0.82;0.05
4036;-0.93;0.06
4040;-1.03;0.07
4045;-1.13;0.07
4049;-1.22;0.08
4054;-1.31;0.09
4059;-1.38;0.10
4063;-1.46;0.11
4068;-1.53;0.12
4072;-1.60;0.13
4076;-1.67;0.14
4081;-1.74;0.15
4085;-1.81;0.16
4090;-1.87;0.17
4094;-1.92;0.17
4100;-1.98;0.18
4104;-2.03;0.19
4109;-2.08;0.20
4113;-2.14;0.21
4117;-2.18;0.22
4122;-2.21;0.23
4126;-2.25;0.23
4131;-2.29;0.24
4135;-2.34;0.25
4141;-2.38;0.26
4145;-2.42;0.27
4150;-2.45;0.28
4154;-2.48;0.29
4159;-2.52;0.30
4163;-2.55;0.31
4167;-2.60;0.31
4172;-2.64;0.32
4176;-2.67;0.32
4182;-2.71;0.33
4186;-2.74;0.34
4191;-2.77;0.34
4195;-2.80;0.35
4200;-2.83;0.36
4204;-2.86;0.36
4209;-2.89;0.37
4213;-2.92;0.38
4218;-2.95;0.39
4222;-2.97;0.40
4227;-3.01;0.40
4232;-3.04;0.41
4236;-3.08;0.41
4241;-3.11;0.42
4245;-3.15;0.43
4250;-3.19;0.44
4254;-3.22;0.44
4259;-3.25;0.45
4263;-3.28;0.46
4269;-3.30;0.48
4273;-3.32;0.49
4277;-3.35;0.49
4282;-3.38;0.50
4286;-3.39;0.50
4291;-3.40;0.51
4295;-3.41;0.52
4300;-3.41;0.53
4304;-3.42;0.53
4310;-3.42;0.54
4314;-3.44;0.54
4319;-3.44;0.55
4323;-3.45;0.56
4328;-3.45;0.57
4332;-3.45;0.58
4336;-3.45;0.59
4341;-3.45;0.59
4345;-3.46;0.60
4350;-3.46;0.61
4355;-3.47;0.61
4360;-3.47;0.62
4364;-3.47;0.62
4369;-3.47;0.63
4373;-3.47;0.63
4378;-3.47;0.64
4382;-3.48;0.65
4387;-3.48;0.66
4391;-3.49;0.66
4397;-3.49;0.67
4401;-3.48;0.68
4405;-3.48;0.69
4410;-3.47;0.70
4414;-3.47;0.70
4419;-3.47;0.71
4423;-3.46;0.71
4428;-3.46;0.72
4432;-3.46;0.73
4438;-3.46;0.73
4442;-3.45;0.74
4447;-3.45;0.75
4451;-3.44;0.76
4456;-3.45;0.77
4460;-3.45;0.78
4464;-3.47;0.78
4469;-3.48;0.79
4473;-3.49;0.80
4478;-3.50;0.81
4483;-3.51;0.81
4488;-3.52;0.82
4492;-3.52;0.82
4497;-3.51;0.83
4501;-3.51;0.84
4506;-3.51;0.85
4510;-3.51;0.86
4515;-3.51;0.88
4519;-3.51;0.89
4525;-3.51;0.90
4529;-3.51;0.92
4533;-3.52;0.92
4538;-3.52;0.93
4542;-3.53;0.94
4547;-3.52;0.95
4551;-3.52;0.95
4556;-3.51;0.96
4560;-3.50;0.97
4566;-3.49;0.98
4570;-3.48;0.99
4575;-3.45;1.00
4579;-3.42;1.01
4584;-3.41;1.02
4588;-3.41;1.03
4592;-3.40;1.03
4597;-3.38;1.05
4601;-3.38;1.05
4606;-3.38;1.07
4611;-3.40;1.07
4616;-3.42;1.08
4620;-3.45;1.10
4625;-3.47;1.11
4629;-3.50;1.12
4634;-3.52;1.14
4638;-3.55;1.15
4642;-3.60;1.16
4647;-3.63;1.17
4652;-3.66;1.18
4657;-3.68;1.19
4661;-3.72;1.20
4666;-3.75;1.21
4670;-3.78;1.22
4675;-3.80;1.23
4679;-3.85;1.24
4684;-3.88;1.26
4688;-3.92;1.27
4692;-3.97;1.28
4698;-4.01;1.29
4702;-4.03;1.29
4707;-4.05;1.30
4711;-4.03;1.30
4716;-4.00;1.30
4720;-3.98;1.30
4725;-3.96;1.30
4729;-3.99;1.29
4734;-4.03;1.28
4739;-4.11;1.27
4743;-4.21;1.25
4748;-4.29;1.24
4752;-4.42;1.22
4757;-4.56;1.20
4761;-4.67;1.18
4766;-4.81;1.14
4770;-4.88;1.12
4775;-4.99;1.06
4780;-5.03;0.99
4785;-5.10;0.91
4789;-5.06;0.87
4794;-5.07;0.79
4798;-5.05;0.69
4803;-5.03;0.60
4807;-5.03;0.49
4812;-5.00;0.37
4816;-4.99;0.25
4822;-4.96;0.12
4826;-4.94;-0.01
4831;-4.94;-0.15
4835;-4.93;-0.29
4840;-4.85;-0.37
4844;-4.84;-0.52
4848;-4.81;-0.69
4853;-4.77;-0.87
4857;-4.61;-0.95
4862;-4.56;-1.14
4867;-4.35;-1.23
4872;-4.25;-1.42
4876;-4.06;-1.52
4881;-3.91;-1.73
4885;-3.67;-1.83
4890;-3.48;-2.04
4894;-3.21;-2.15
4899;-3.01;-2.38
4903;-2.72;-2.49
4909;-2.58;-2.84
4913;-2.23;-2.96
4918;-1.93;-3.19
4922;-1.52;-3.31
4927;-1.23;-3.54
4931;-0.94;-3.78
4936;-0.68;-4.02
4940;-0.43;-4.27
4945;-0.19;-4.52
4950;0.07;-4.77
4954;0.45;-4.90
4959;0.85;-5.16
4963;1.37;-5.28
4968;1.77;-5.54
4972;2.28;-5.66
4977;2.74;-5.92
4981;3.31;-6.04
4986;3.80;-6.30
4990;4.27;-6.55
4996;4.73;-6.80
5000;5.19;-7.05
5005;5.63;-7.31
5009;6.12;-7.56
5013;6.71;-7.68
5018;7.21;-7.92
5022;7.81;-8.04
5027;8.27;-8.27
5031;8.83;-8.37
5037;9.28;-8.70
5041;9.91;-8.80
5046;10.47;-9.00
5050;11.09;-9.10
5055;11.59;-9.28
5059;12.27;-9.36
5064;12.84;-9.53
5068;13.57;-9.60
5073;14.21;-9.73
5078;15.02;-9.76
5083;15.77;-9.84
5087;16.53;-9.84
5092;17.26;-9.85
5096;17.71;-9.85
5101;18.19;-9.80
5105;18.56;-9.78
5110;18.98;-9.70
5114;19.34;-9.66
5120;19.75;-9.55
5124;20.10;-9.49
5129;20.49;-9.39
5133;20.83;-9.32
5138;21.17;-9.19
5142;21.45;-9.12
5147;21.77;-8.98
5151;22.02;-8.91
5156;22.29;-8.76
5161;22.55;-8.62
5166;22.76;-8.49
5171;22.96;-8.36
5175;23.12;-8.24
5180;23.27;-8.13
5184;23.48;-8.03
5189;23.69;-7.93
5193;23.90;-7.83
5198;24.11;-7.73
5202;24.27;-7.68
5208;24.48;-7.50
5212;24.58;-7.45
5217;24.51;-7.33
5221;24.38;-7.28
5226;24.14;-7.16
5230;23.84;-7.11
5235;23.71;-7.01
5239;23.54;-6.96
5244;23.43;-6.87
5249;23.33;-6.76
5254;23.17;-6.66
5259;23.00;-6.55
5263;22.90;-6.44
5268;22.86;-6.33
5272;22.81;-6.22
5277;22.85;-6.11
5281;22.88;-6.00
5286;23.02;-5.89
5291;23.09;-5.83
5296;23.30;-5.71
5300;23.44;-5.65
5305;23.45;-5.52
5309;23.40;-5.45
5314;23.26;-5.31
5318;23.05;-5.23
5323;22.92;-5.09
5327;22.72;-5.01
5332;22.43;-4.86
5337;22.09;-4.78
5342;21.84;-4.61
5347;21.56;-4.44
5351;21.29;-4.27
5356;21.01;-4.10
5360;20.76;-3.92
5365;20.47;-3.75
5369;20.12;-3.65
5374;19.84;-3.46
5379;19.49;-3.36
5384;19.33;-3.16
5388;19.07;-3.06
5393;18.98;-2.86
5397;18.79;-2.76
5402;18.72;-2.55
5406;18.55;-2.45
5411;18.47;-2.23
5415;18.27;-2.13
5421;18.29;-1.80
5426;18.06;-1.58
5430;17.85;-1.36
5435;17.55;-1.14
5439;17.27;-0.93
5444;17.03;-0.72
5448;16.80;-0.51
5453;16.46;-0.29
5457;16.14;-0.07
5463;15.85;0.27
5467;15.46;0.50
5472;15.03;0.74
5476;14.62;0.97
5481;14.22;1.20
5485;13.87;1.43
5490;13.53;1.65
5494;13.25;1.87
5499;12.98;2.08
5504;12.73;2.30
5509;12.50;2.51
5513;12.15;2.73
5518;11.81;2.95
5522;11.35;3.16
5527;10.90;3.38
5531;10.40;3.59
5536;9.92;3.80
5540;9.43;4.00
5545;8.95;4.21
5550;8.50;4.41
5554;7.94;4.51
5559;7.51;4.72
5563;7.00;4.82
5568;6.60;5.02
5572;6.12;5.12
5577;5.76;5.31
5581;5.37;5.50
5586;4.99;5.68
5591;4.57;5.87
5596;4.17;6.04
5600;3.60;6.13
5605;3.14;6.31
5609;2.64;6.40
5614;2.12;6.57
5618;1.53;6.65
5623;1.02;6.82
5627;0.44;6.89
5633;0.02;7.12
5637;-0.45;7.27
5642;-0.92;7.41
5646;-1.38;7.55
5651;-1.85;7.68
5655;-2.31;7.81
5660;-2.76;7.94
5664;-3.21;8.06
5668;-3.72;8.13
5673;-4.14;8.25
5678;-4.59;8.31
5683;-5.01;8.42
5687;-5.47;8.47
5692;-5.92;8.57
5696;-6.40;8.63
5701;-6.83;8.73
5705;-7.29;8.77
5710;-7.71;8.86
5714;-8.16;8.90
5720;-8.53;9.02
5724;-8.96;9.05
5729;-9.36;9.12
5733;-9.79;9.16
5738;-10.17;9.22
5742;-10.58;9.25
5747;-10.96;9.31
5751;-11.35;9.34
5756;-11.70;9.39
5761;-12.02;9.44
5766;-12.31;9.49
5770;-12.63;9.51
5775;-12.92;9.54
5779;-13.22;9.56
5784;-13.50;9.58
5788;-13.77;9.60
5793;-14.02;9.62
5797;-14.28;9.63
5803;-14.54;9.65
5807;-14.79;9.66
5812;-15.10;9.66
5816;-15.40;9.67
5821;-15.75;9.67
5825;-16.10;9.67
5830;-16.45;9.67
5834;-16.79;9.66
5839;-17.04;9.65
5843;-17.28;9.64
5849;-17.47;9.62
5853;-17.64;9.61
5858;-17.75;9.57
5863;-17.86;9.54
5867;-17.91;9.49
5872;-17.95;9.44
5876;-18.00;9.39
5881;-18.03;9.33
5885;-18.06;9.27
5891;-18.10;9.22
5895;-18.15;9.16
5900;-18.20;9.10
5904;-18.25;9.04
5909;-18.29;8.97
5913;-18.31;8.93
5918;-18.36;8.86
5922;-18.37;8.82
5927;-18.45;8.73
5932;-18.53;8.64
5937;-18.60;8.54
5941;-18.63;8.49
5946;-18.71;8.39
5950;-18.70;8.34
5955;-18.74;8.22
5959;-18.70;8.16
5964;-18.73;8.04
5969;-18.65;7.97
5974;-18.64;7.83
5979;-18.58;7.69
5983;-18.51;7.54
5988;-18.40;7.39
5992;-18.30;7.24
5997;-18.16;7.09
6001;-18.03;6.93
6006;-17.90;6.77
6010;-17.70;6.68
6016;-17.59;6.52
6020;-17.39;6.43
6025;-17.28;6.26
6029;-17.12;6.16
6034;-17.05;5.98
6038;-16.88;5.89
6043;-16.80;5.70
6047;-16.55;5.60
6052;-16.42;5.40
6056;-16.15;5.30
6062;-15.99;5.08
6067;-15.77;4.87
6071;-15.57;4.64
6076;-15.36;4.42
6080;-15.16;4.20
6085;-14.97;3.98
6089;-14.74;3.75
6094;-14.52;3.53
6098;-14.23;3.30
6104;-14.06;2.95
6108;-13.70;2.72
6113;-13.36;2.49
6117;-12.95;2.25
6122;-12.56;2.00
6126;-11.96;1.88
6131;-11.51;1.64
6135;-10.91;1.52
6140;-10.45;1.29
6145;-9.98;1.05
6150;-9.52;0.82
6154;-9.07;0.59
6159;-8.57;0.37
6163;-8.08;0.15
6168;-7.58;-0.07
6172;-7.09;-0.28
6177;-6.59;-0.50
6181;-6.10;-0.71
6187;-5.59;-0.92
6191;-5.10;-1.12
6196;-4.54;-1.32
6200;-4.00;-1.51
6205;-3.45;-1.71
6209;-2.92;-1.90
6213;-2.25;-1.99
6218;-1.70;-2.17
6222;-1.08;-2.25
6227;-0.50;-2.41
6232;0.14;-2.49
6237;0.70;-2.63
6241;1.31;-2.71
6246;1.89;-2.83
6250;2.50;-2.89
6255;3.09;-2.99
6259;3.66;-3.10
6264;4.21;-3.20
6268;4.75;-3.28
6274;5.28;-3.41
6278;5.85;-3.47
6283;6.39;-3.54
6287;6.96;-3.57
6292;7.51;-3.61
6296;8.04;-3.65
6301;8.58;-3.66
6305;9.11;-3.67
6310;9.65;-3.66
6315;10.15;-3.65
6320;10.66;-3.61
6324;11.09;-3.57
6328;11.50;-3.53
6333;11.90;-3.46
6338;12.28;-3.40
6342;12.65;-3.30
6347;13.00;-3.21
6351;13.37;-3.08
6356;13.64;-2.95
6361;13.90;-2.83
6366;14.16;-2.68
6370;14.41;-2.53
6375;14.62;-2.37
6379;14.82;-2.20
6384;14.99;-2.02
6388;15.15;-1.83
6393;15.30;-1.65
6397;15.46;-1.45
6403;15.60;-1.26
6407;15.64;-1.15
6412;15.74;-0.93
6416;15.85;-0.70
6421;15.96;-0.47
6425;15.93;-0.36
6430;16.03;-0.11
6434;15.97;0.01
6439;16.04;0.26
6444;16.03;0.51
6449;16.03;0.77
6453;15.76;0.90
6458;15.62;1.16
6462;15.23;1.30
6467;14.99;1.57
6471;14.57;1.70
6476;14.29;1.98
6480;13.89;2.11
6486;13.60;2.39
6490;13.19;2.53
6495;12.90;2.81
6499;12.48;2.95
6504;12.16;3.23
6508;11.72;3.37
6513;11.39;3.65
6517;10.94;3.79
6522;10.58;4.07
6526;10.11;4.20
6532;9.72;4.48
6536;9.35;4.75
6541;8.92;5.02
6545;8.39;5.16
6550;8.00;5.42
6554;7.56;5.68
6559;7.12;5.93
6563;6.60;6.18
6568;6.08;6.42
6573;5.64;6.79
6578;5.09;7.03
6582;4.51;7.26
6587;3.95;7.48
6591;3.36;7.69
6595;2.69;7.80
6600;2.11;8.00
6604;1.45;8.10
6609;0.89;8.30
6614;0.27;8.39
6619;-0.24;8.58
6623;-0.85;8.67
6628;-1.34;8.84
6632;-1.93;8.92
6637;-2.43;9.08
6641;-2.96;9.23
6646;-3.48;9.37
6650;-4.03;9.51
6656;-4.56;9.64
6660;-5.12;9.77
6665;-5.65;9.90
6669;-6.16;10.02
6674;-6.64;10.13
6678;-7.13;10.23
6682;-7.58;10.32
6687;-8.03;10.40
6691;-8.51;10.44
6696;-8.93;10.51
6702;-9.36;10.57
6706;-9.78;10.64
6711;-10.22;10.69
6715;-10.64;10.75
6720;-11.10;10.79
6724;-11.53;10.84
6729;-11.97;10.88
6733;-12.40;10.91
6738;-12.82;10.93
6743;-13.19;10.94
6748;-13.55;10.95
6752;-13.87;10.95
6757;-14.18;10.95
6761;-14.44;10.95
6766;-14.69;10.93
6770;-14.92;10.93
6775;-15.17;10.90
6779;-15.41;10.88
6785;-15.69;10.82
6789;-15.95;10.80
6794;-16.22;10.75
6798;-16.48;10.73
6803;-16.77;10.67
6807;-17.02;10.64
6812;-17.29;10.57
6816;-17.53;10.54
6821;-17.78;10.46
6827;-18.01;10.38
6831;-18.19;10.29
6836;-18.36;10.21
6840;-18.49;10.10
6845;-18.61;10.00
6849;-18.64;9.94
6854;-18.73;9.83
6858;-18.71;9.77
6863;-18.76;9.65
6867;-18.71;9.59
6873;-18.74;9.45
6877;-18.67;9.39
6882;-18.68;9.24
6886;-18.62;9.17
6891;-18.60;9.03
6895;-18.52;8.95
6900;-18.49;8.80
6905;-18.47;8.64
6909;-18.44;8.49
6915;-18.42;8.32
6919;-18.33;8.15
6924;-18.25;7.99
6928;-18.02;7.90
6933;-17.88;7.73
6937;-17.63;7.63
6942;-17.48;7.45
6946;-17.22;7.36
6951;-17.05;7.18
6956;-16.89;6.99
6961;-16.69;6.80
6965;-16.42;6.71
6970;-16.19;6.52
6974;-15.88;6.42
6979;-15.61;6.23
6983;-15.25;6.13
6988;-14.97;5.94
6992;-14.61;5.85
6998;-14.31;5.65
7002;-13.93;5.56
7007;-13.64;5.37
7011;-13.27;5.28
7016;-12.95;5.09
7021;-12.56;5.00
7025;-12.19;4.82
7030;-11.86;4.64
7034;-11.53;4.47
7040;-11.16;4.29
7044;-10.81;4.12
7049;-10.41;3.95
7053;-10.03;3.78
7058;-9.55;3.62
7062;-9.10;3.46
7067;-8.63;3.31
7071;-8.17;3.16
7075;-7.71;3.03
7080;-7.26;2.90
7086;-6.83;2.76
7090;-6.40;2.64
7094;-5.99;2.52
7099;-5.57;2.41
7103;-5.17;2.30
7108;-4.74;2.19
7112;-4.28;2.14
7117;-3.88;2.04
7121;-3.43;2.00
7127;-3.06;1.86
7131;-2.62;1.83
7136;-2.19;1.75
7140;-1.75;1.72
7145;-1.39;1.66
7149;-1.04;1.60
7154;-0.70;1.56
7158;-0.36;1.51
7162;-0.02;1.48
7168;0.34;1.45
7172;0.70;1.43
7177;1.06;1.41
7181;1.42;1.40
7186;1.77;1.39
7190;2.11;1.39
7195;2.48;1.39
7199;2.83;1.40
7203;3.15;1.40
7208;3.47;1.43
7213;3.76;1.44
7218;4.04;1.48
7222;4.28;1.49
7227;4.52;1.53
7231;4.75;1.58
7236;4.99;1.62
7240;5.23;1.67
7245;5.47;1.73
7249;5.72;1.80
7254;5.87;1.83
7259;6.05;1.90
7263;6.13;1.94
7268;6.25;2.02
7272;6.33;2.07
7277;6.43;2.16
7281;6.48;2.20
7286;6.59;2.30
7290;6.64;2.34
7296;6.74;2.44
7300;6.84;2.54
7305;6.90;2.65
7309;6.97;2.76
7314;6.98;2.88
7318;7.00;3.00
7323;6.98;3.12
7327;6.96;3.24
7331;6.94;3.36
7336;6.91;3.48
7341;6.83;3.54
7346;6.79;3.67
7350;6.70;3.73
7355;6.60;3.85
7359;6.45;3.92
7364;6.36;4.04
7368;6.22;4.10
7373;6.11;4.23
7377;5.94;4.29
7383;5.86;4.48
7387;5.66;4.55
7392;5.50;4.67
7396;5.29;4.73
7401;5.14;4.85
7405;4.90;4.91
7410;4.74;5.03
7414;4.49;5.08
7419;4.31;5.20
7424;4.11;5.31
7429;3.92;5.42
7433;3.71;5.52
7438;3.51;5.63
7442;3.28;5.73
7446;3.00;5.78
7451;2.76;5.87
7455;2.49;5.91
7460;2.26;6.00
7464;2.02;6.03
7470;1.82;6.11
7474;1.56;6.15
7479;1.34;6.22
7483;1.07;6.25
7488;0.84;6.31
7492;0.60;6.36
7497;0.36;6.42
7501;0.12;6.46
7505;-0.14;6.49
7511;-0.34;6.54
7515;-0.58;6.56
7520;-0.79;6.58
7524;-1.02;6.60
7529;-1.22;6.62
7533;-1.43;6.64
7538;-1.63;6.65
7542;-1.83;6.66
7546;-2.02;6.66
7552;-2.20;6.65
7556;-2.37;6.65
7561;-2.52;6.64
7565;-2.68;6.64
7570;-2.83;6.62
7574;-2.95;6.61
7579;-3.08;6.59
7583;-3.19;6.58
7588;-3.32;6.55
7592;-3.43;6.53
7598;-3.55;6.49
7602;-3.62;6.46
7607;-3.70;6.42
7611;-3.76;6.38
7615;-3.82;6.35
7620;-3.88;6.31
7624;-3.91;6.29
7629;-3.96;6.24
7633;-3.98;6.22
7639;-4.05;6.15
7643;-4.04;6.13
7648;-4.05;6.08
7652;-4.02;6.06
7657;-4.01;6.01
7661;-4.00;5.97
7666;-3.99;5.92
7670;-3.97;5.88
7675;-3.95;5.83
7680;-3.92;5.79
7685;-3.89;5.75
7689;-3.84;5.71
7694;-3.79;5.67
7698;-3.74;5.63
7703;-3.67;5.59
7707;-3.60;5.55
7711;-3.52;5.51
7716;-3.44;5.48
7720;-3.34;5.46
7726;-3.26;5.43
7730;-3.16;5.42
7735;-3.08;5.39
7739;-2.97;5.37
7744;-2.88;5.35
7748;-2.77;5.34
7753;-2.68;5.32
7757;-2.59;5.31
7762;-2.49;5.29
7767;-2.40;5.28
7772;-2.28;5.27
7776;-2.17;5.26
7781;-2.04;5.25
7785;-1.92;5.24
7790;-1.80;5.24
7794;-1.69;5.24
7799;-1.59;5.24
7803;-1.49;5.25
7808;-1.40;5.25
7813;-1.31;5.25
7817;-1.23;5.26
7822;-1.13;5.26
7826;-1.03;5.27
7831;-0.94;5.28
7835;-0.85;5.28
7840;-0.78;5.30
7844;-0.72;5.31
7849;-0.66;5.33
7854;-0.60;5.35
7859;-0.55;5.37
7863;-0.51;5.39
7868;-0.46;5.41
7872;-0.42;5.44
7876;-0.38;5.45
7881;-0.32;5.47
7885;-0.28;5.49
7890;-0.24;5.51
7895;-0.21;5.54
7900;-0.19;5.57
7904;-0.19;5.59
7909;-0.18;5.62
7913;-0.18;5.65
7918;-0.18;5.68
7922;-0.19;5.71
7927;-0.18;5.73
7931;-0.18;5.75
7936;-0.17;5.79
7941;-0.16;5.81
7945;-0.16;5.82
7950;-0.16;5.84
7954;-0.17;5.85
7959;-0.19;5.88
7963;-0.22;5.89
7968;-0.25;5.92
7972;-0.29;5.95
7977;-0.33;5.98
7982;-0.37;6.01
7987;-0.38;6.04
7991;-0.40;6.07
7995;-0.43;6.08
8000;-0.45;6.10
8004;-0.48;6.11
8009;-0.51;6.13
8013;-0.54;6.14
8018;-0.57;6.16
8023;-0.59;6.18
8028;-0.62;6.20
8032;-0.65;6.21
8036;-0.66;6.22
8041;-0.67;6.23
8045;-0.67;6.24
8050;-0.67;6.25
8054;-0.68;6.26
8059;-0.69;6.27
8064;-0.70;6.27
8069;-0.69;6.28
8073;-0.67;6.29
8078;-0.66;6.30
8082;-0.65;6.30
8087;-0.66;6.32
8091;-0.68;6.33
8096;-0.73;6.34
8100;-0.78;6.36
8105;-0.87;6.37
8110;-0.95;6.38
8114;-1.03;6.38
8119;-1.08;6.38
8123;-1.13;6.39
8128;-1.15;6.39

